----------------------------------------------------------------------
/Users/ziyad/Documents/Tools/benchs/./bench/datasets/University0_0.owl
----------------------------------------------------------------------
External Seed=0 Interal Seed=0

CLASS INSTANCE# TOTAL-SO-FAR
----------------------------
University 258 258
Department 1 1
Faculty 0 0
Professor 0 0
FullProfessor 10 10
AssociateProfessor 14 14
AssistantProfessor 10 10
Lecturer 7 7
Student 0 0
UndergraduateStudent 532 532
GraduateStudent 146 146
TeachingAssistant 29 29
ResearchAssistant 39 39
Course 62 62
GraduateCourse 58 58
Publication 458 458
Chair 0 0
Research 0 0
ResearchGroup 10 10

TOTAL: 1634
TOTAL SO FAR: 1634

PROPERTY INSTANCE# TOTAL-SO-FAR
-------------------------------
name 1299 1299
takesCourse 1782 1782
teacherOf 113 113
undergraduateDegreeFrom 180 180
mastersDegreeFrom 38 38
doctoralDegreeFrom 38 38
advisor 243 243
memberOf 641 641
publicationAuthor 835 835
headOf 1 1
teachingAssistantOf 29 29
researchInterest 34 34
emailAddress 719 719
telephone 719 719
subOrganizationOf 11 11
worksFor 38 38

TOTAL: 6720
TOTAL SO FAR: 6720

----------------------------------------------------------------------
/Users/ziyad/Documents/Tools/benchs/./bench/datasets/University0_1.owl
----------------------------------------------------------------------
External Seed=0 Interal Seed=0

CLASS INSTANCE# TOTAL-SO-FAR
----------------------------
University 228 486
Department 1 2
Faculty 0 0
Professor 0 0
FullProfessor 7 17
AssociateProfessor 14 28
AssistantProfessor 11 21
Lecturer 5 12
Student 0 0
UndergraduateStudent 337 869
GraduateStudent 127 273
TeachingAssistant 27 56
ResearchAssistant 34 73
Course 51 113
GraduateCourse 52 110
Publication 405 863
Chair 0 0
Research 0 0
ResearchGroup 14 24

TOTAL: 1313
TOTAL SO FAR: 2947

PROPERTY INSTANCE# TOTAL-SO-FAR
-------------------------------
name 1010 2309
takesCourse 1226 3008
teacherOf 102 215
undergraduateDegreeFrom 154 334
mastersDegreeFrom 37 75
doctoralDegreeFrom 36 74
advisor 188 431
memberOf 447 1088
publicationAuthor 717 1552
headOf 1 2
teachingAssistantOf 27 56
researchInterest 32 66
emailAddress 501 1220
telephone 501 1220
subOrganizationOf 15 26
worksFor 34 72

TOTAL: 5028
TOTAL SO FAR: 11748

----------------------------------------------------------------------
/Users/ziyad/Documents/Tools/benchs/./bench/datasets/University0_2.owl
----------------------------------------------------------------------
External Seed=0 Interal Seed=0

CLASS INSTANCE# TOTAL-SO-FAR
----------------------------
University 249 735
Department 1 3
Faculty 0 0
Professor 0 0
FullProfessor 10 27
AssociateProfessor 12 40
AssistantProfessor 8 29
Lecturer 7 19
Student 0 0
UndergraduateStudent 362 1231
GraduateStudent 146 419
TeachingAssistant 33 89
ResearchAssistant 45 118
Course 54 167
GraduateCourse 59 169
Publication 403 1266
Chair 0 0
Research 0 0
ResearchGroup 10 34

TOTAL: 1399
TOTAL SO FAR: 4346

PROPERTY INSTANCE# TOTAL-SO-FAR
-------------------------------
name 1062 3371
takesCourse 1275 4283
teacherOf 110 325
undergraduateDegreeFrom 178 512
mastersDegreeFrom 35 110
doctoralDegreeFrom 35 109
advisor 208 639
memberOf 485 1573
publicationAuthor 748 2300
headOf 1 3
teachingAssistantOf 33 89
researchInterest 30 96
emailAddress 545 1765
telephone 545 1765
subOrganizationOf 11 37
worksFor 37 109

TOTAL: 5338
TOTAL SO FAR: 17086

----------------------------------------------------------------------
/Users/ziyad/Documents/Tools/benchs/./bench/datasets/University0_3.owl
----------------------------------------------------------------------
External Seed=0 Interal Seed=0

CLASS INSTANCE# TOTAL-SO-FAR
----------------------------
University 227 962
Department 1 4
Faculty 0 0
Professor 0 0
FullProfessor 9 36
AssociateProfessor 10 50
AssistantProfessor 10 39
Lecturer 5 24
Student 0 0
UndergraduateStudent 377 1608
GraduateStudent 133 552
TeachingAssistant 28 117
ResearchAssistant 38 156
Course 47 214
GraduateCourse 55 224
Publication 350 1616
Chair 0 0
Research 0 0
ResearchGroup 18 52

TOTAL: 1308
TOTAL SO FAR: 5654

PROPERTY INSTANCE# TOTAL-SO-FAR
-------------------------------
name 997 4368
takesCourse 1328 5611
teacherOf 99 424
undergraduateDegreeFrom 160 672
mastersDegreeFrom 33 143
doctoralDegreeFrom 33 142
advisor 208 847
memberOf 479 2052
publicationAuthor 692 2992
headOf 1 4
teachingAssistantOf 28 117
researchInterest 29 125
emailAddress 544 2309
telephone 544 2309
subOrganizationOf 19 56
worksFor 33 142

TOTAL: 5227
TOTAL SO FAR: 22313

----------------------------------------------------------------------
/Users/ziyad/Documents/Tools/benchs/./bench/datasets/University0_4.owl
----------------------------------------------------------------------
External Seed=0 Interal Seed=0

CLASS INSTANCE# TOTAL-SO-FAR
----------------------------
University 240 1202
Department 1 5
Faculty 0 0
Professor 0 0
FullProfessor 10 46
AssociateProfessor 14 64
AssistantProfessor 9 48
Lecturer 6 30
Student 0 0
UndergraduateStudent 498 2106
GraduateStudent 132 684
TeachingAssistant 28 145
ResearchAssistant 37 193
Course 58 272
GraduateCourse 57 281
Publication 447 2063
Chair 0 0
Research 0 0
ResearchGroup 11 63

TOTAL: 1548
TOTAL SO FAR: 7202

PROPERTY INSTANCE# TOTAL-SO-FAR
-------------------------------
name 1232 5600
takesCourse 1640 7251
teacherOf 112 536
undergraduateDegreeFrom 166 838
mastersDegreeFrom 35 178
doctoralDegreeFrom 38 180
advisor 224 1071
memberOf 599 2651
publicationAuthor 781 3773
headOf 1 5
teachingAssistantOf 28 145
researchInterest 33 158
emailAddress 669 2978
telephone 669 2978
subOrganizationOf 12 68
worksFor 36 178

TOTAL: 6275
TOTAL SO FAR: 28588

----------------------------------------------------------------------
/Users/ziyad/Documents/Tools/benchs/./bench/datasets/University0_5.owl
----------------------------------------------------------------------
External Seed=0 Interal Seed=0

CLASS INSTANCE# TOTAL-SO-FAR
----------------------------
University 213 1415
Department 1 6
Faculty 0 0
Professor 0 0
FullProfessor 7 53
AssociateProfessor 12 76
AssistantProfessor 10 58
Lecturer 6 36
Student 0 0
UndergraduateStudent 403 2509
GraduateStudent 114 798
TeachingAssistant 24 169
ResearchAssistant 32 225
Course 54 326
GraduateCourse 54 335
Publication 375 2438
Chair 0 0
Research 0 0
ResearchGroup 11 74

TOTAL: 1316
TOTAL SO FAR: 8518

PROPERTY INSTANCE# TOTAL-SO-FAR
-------------------------------
name 1036 6636
takesCourse 1348 8599
teacherOf 102 638
undergraduateDegreeFrom 145 983
mastersDegreeFrom 34 212
doctoralDegreeFrom 33 213
advisor 190 1261
memberOf 483 3134
publicationAuthor 660 4433
headOf 1 6
teachingAssistantOf 24 169
researchInterest 29 187
emailAddress 552 3530
telephone 552 3530
subOrganizationOf 12 80
worksFor 34 212

TOTAL: 5235
TOTAL SO FAR: 33823

----------------------------------------------------------------------
/Users/ziyad/Documents/Tools/benchs/./bench/datasets/University0_6.owl
----------------------------------------------------------------------
External Seed=0 Interal Seed=0

CLASS INSTANCE# TOTAL-SO-FAR
----------------------------
University 198 1613
Department 1 7
Faculty 0 0
Professor 0 0
FullProfessor 7 60
AssociateProfessor 13 89
AssistantProfessor 8 66
Lecturer 5 41
Student 0 0
UndergraduateStudent 331 2840
GraduateStudent 112 910
TeachingAssistant 24 193
ResearchAssistant 28 253
Course 53 379
GraduateCourse 52 387
Publication 377 2815
Chair 0 0
Research 0 0
ResearchGroup 16 90

TOTAL: 1225
TOTAL SO FAR: 9743

PROPERTY INSTANCE# TOTAL-SO-FAR
-------------------------------
name 959 7595
takesCourse 1128 9727
teacherOf 98 736
undergraduateDegreeFrom 139 1122
mastersDegreeFrom 31 243
doctoralDegreeFrom 27 240
advisor 164 1425
memberOf 427 3561
publicationAuthor 662 5095
headOf 1 7
teachingAssistantOf 24 193
researchInterest 28 215
emailAddress 476 4006
telephone 476 4006
subOrganizationOf 17 97
worksFor 32 244

TOTAL: 4689
TOTAL SO FAR: 38512

----------------------------------------------------------------------
/Users/ziyad/Documents/Tools/benchs/./bench/datasets/University0_7.owl
----------------------------------------------------------------------
External Seed=0 Interal Seed=0

CLASS INSTANCE# TOTAL-SO-FAR
----------------------------
University 223 1836
Department 1 8
Faculty 0 0
Professor 0 0
FullProfessor 8 68
AssociateProfessor 13 102
AssistantProfessor 9 75
Lecturer 5 46
Student 0 0
UndergraduateStudent 406 3246
GraduateStudent 129 1039
TeachingAssistant 29 222
ResearchAssistant 32 285
Course 55 434
GraduateCourse 53 440
Publication 389 3204
Chair 0 0
Research 0 0
ResearchGroup 12 102

TOTAL: 1364
TOTAL SO FAR: 11107

PROPERTY INSTANCE# TOTAL-SO-FAR
-------------------------------
name 1068 8663
takesCourse 1394 11121
teacherOf 105 841
undergraduateDegreeFrom 155 1277
mastersDegreeFrom 33 276
doctoralDegreeFrom 34 274
advisor 203 1628
memberOf 511 4072
publicationAuthor 720 5815
headOf 1 8
teachingAssistantOf 29 222
researchInterest 30 245
emailAddress 570 4576
telephone 570 4576
subOrganizationOf 13 110
worksFor 32 276

TOTAL: 5468
TOTAL SO FAR: 43980

----------------------------------------------------------------------
/Users/ziyad/Documents/Tools/benchs/./bench/datasets/University0_8.owl
----------------------------------------------------------------------
External Seed=0 Interal Seed=0

CLASS INSTANCE# TOTAL-SO-FAR
----------------------------
University 216 2052
Department 1 9
Faculty 0 0
Professor 0 0
FullProfessor 8 76
AssociateProfessor 13 115
AssistantProfessor 8 83
Lecturer 5 51
Student 0 0
UndergraduateStudent 475 3721
GraduateStudent 129 1168
TeachingAssistant 25 247
ResearchAssistant 36 321
Course 53 487
GraduateCourse 52 492
Publication 378 3582
Chair 0 0
Research 0 0
ResearchGroup 12 114

TOTAL: 1411
TOTAL SO FAR: 12518

PROPERTY INSTANCE# TOTAL-SO-FAR
-------------------------------
name 1122 9785
takesCourse 1606 12727
teacherOf 103 944
undergraduateDegreeFrom 151 1428
mastersDegreeFrom 32 308
doctoralDegreeFrom 32 306
advisor 226 1854
memberOf 560 4632
publicationAuthor 714 6529
headOf 1 9
teachingAssistantOf 25 247
researchInterest 29 274
emailAddress 638 5214
telephone 638 5214
subOrganizationOf 13 123
worksFor 32 308

TOTAL: 5922
TOTAL SO FAR: 49902

----------------------------------------------------------------------
/Users/ziyad/Documents/Tools/benchs/./bench/datasets/University0_9.owl
----------------------------------------------------------------------
External Seed=0 Interal Seed=0

CLASS INSTANCE# TOTAL-SO-FAR
----------------------------
University 210 2262
Department 1 10
Faculty 0 0
Professor 0 0
FullProfessor 9 85
AssociateProfessor 11 126
AssistantProfessor 8 91
Lecturer 5 56
Student 0 0
UndergraduateStudent 403 4124
GraduateStudent 124 1292
TeachingAssistant 30 277
ResearchAssistant 37 358
Course 46 533
GraduateCourse 50 542
Publication 403 3985
Chair 0 0
Research 0 0
ResearchGroup 19 133

TOTAL: 1356
TOTAL SO FAR: 13874

PROPERTY INSTANCE# TOTAL-SO-FAR
-------------------------------
name 1060 10845
takesCourse 1369 14096
teacherOf 93 1037
undergraduateDegreeFrom 146 1574
mastersDegreeFrom 33 341
doctoralDegreeFrom 30 336
advisor 190 2044
memberOf 497 5129
publicationAuthor 691 7220
headOf 1 10
teachingAssistantOf 30 277
researchInterest 28 302
emailAddress 560 5774
telephone 560 5774
subOrganizationOf 20 143
worksFor 31 339

TOTAL: 5339
TOTAL SO FAR: 55241

-----------------------------------------------------------------------
/Users/ziyad/Documents/Tools/benchs/./bench/datasets/University0_10.owl
-----------------------------------------------------------------------
External Seed=0 Interal Seed=0

CLASS INSTANCE# TOTAL-SO-FAR
----------------------------
University 236 2498
Department 1 11
Faculty 0 0
Professor 0 0
FullProfessor 10 95
AssociateProfessor 12 138
AssistantProfessor 9 100
Lecturer 7 63
Student 0 0
UndergraduateStudent 405 4529
GraduateStudent 132 1424
TeachingAssistant 30 307
ResearchAssistant 44 402
Course 54 587
GraduateCourse 56 598
Publication 444 4429
Chair 0 0
Research 0 0
ResearchGroup 16 149

TOTAL: 1456
TOTAL SO FAR: 15330

PROPERTY INSTANCE# TOTAL-SO-FAR
-------------------------------
name 1130 11975
takesCourse 1416 15512
teacherOf 106 1143
undergraduateDegreeFrom 162 1736
mastersDegreeFrom 36 377
doctoralDegreeFrom 37 373
advisor 198 2242
memberOf 512 5641
publicationAuthor 777 7997
headOf 1 11
teachingAssistantOf 30 307
researchInterest 31 333
emailAddress 575 6349
telephone 575 6349
subOrganizationOf 17 160
worksFor 36 375

TOTAL: 5639
TOTAL SO FAR: 60880

-----------------------------------------------------------------------
/Users/ziyad/Documents/Tools/benchs/./bench/datasets/University0_11.owl
-----------------------------------------------------------------------
External Seed=0 Interal Seed=0

CLASS INSTANCE# TOTAL-SO-FAR
----------------------------
University 209 2707
Department 1 12
Faculty 0 0
Professor 0 0
FullProfessor 7 102
AssociateProfessor 13 151
AssistantProfessor 8 108
Lecturer 7 70
Student 0 0
UndergraduateStudent 288 4817
GraduateStudent 117 1541
TeachingAssistant 25 332
ResearchAssistant 31 433
Course 54 641
GraduateCourse 51 649
Publication 376 4805
Chair 0 0
Research 0 0
ResearchGroup 19 168

TOTAL: 1206
TOTAL SO FAR: 16536

PROPERTY INSTANCE# TOTAL-SO-FAR
-------------------------------
name 922 12897
takesCourse 1032 16544
teacherOf 102 1245
undergraduateDegreeFrom 144 1880
mastersDegreeFrom 32 409
doctoralDegreeFrom 32 405
advisor 169 2411
memberOf 374 6015
publicationAuthor 680 8677
headOf 1 12
teachingAssistantOf 25 332
researchInterest 28 361
emailAddress 440 6789
telephone 440 6789
subOrganizationOf 20 180
worksFor 32 407

TOTAL: 4473
TOTAL SO FAR: 65353

-----------------------------------------------------------------------
/Users/ziyad/Documents/Tools/benchs/./bench/datasets/University0_12.owl
-----------------------------------------------------------------------
External Seed=0 Interal Seed=0

CLASS INSTANCE# TOTAL-SO-FAR
----------------------------
University 209 2916
Department 1 13
Faculty 0 0
Professor 0 0
FullProfessor 9 111
AssociateProfessor 10 161
AssistantProfessor 9 117
Lecturer 5 75
Student 0 0
UndergraduateStudent 332 5149
GraduateStudent 120 1661
TeachingAssistant 29 361
ResearchAssistant 31 464
Course 46 687
GraduateCourse 48 697
Publication 359 5164
Chair 0 0
Research 0 0
ResearchGroup 13 181

TOTAL: 1221
TOTAL SO FAR: 17757

PROPERTY INSTANCE# TOTAL-SO-FAR
-------------------------------
name 939 13836
takesCourse 1145 17689
teacherOf 91 1336
undergraduateDegreeFrom 142 2022
mastersDegreeFrom 33 442
doctoralDegreeFrom 33 438
advisor 174 2585
memberOf 427 6442
publicationAuthor 667 9344
headOf 1 13
teachingAssistantOf 29 361
researchInterest 28 389
emailAddress 485 7274
telephone 485 7274
subOrganizationOf 14 194
worksFor 31 438

TOTAL: 4724
TOTAL SO FAR: 70077

-----------------------------------------------------------------------
/Users/ziyad/Documents/Tools/benchs/./bench/datasets/University0_13.owl
-----------------------------------------------------------------------
External Seed=0 Interal Seed=0

CLASS INSTANCE# TOTAL-SO-FAR
----------------------------
University 233 3149
Department 1 14
Faculty 0 0
Professor 0 0
FullProfessor 9 120
AssociateProfessor 12 173
AssistantProfessor 9 126
Lecturer 7 82
Student 0 0
UndergraduateStudent 427 5576
GraduateStudent 133 1794
TeachingAssistant 32 393
ResearchAssistant 40 504
Course 58 745
GraduateCourse 57 754
Publication 411 5575
Chair 0 0
Research 0 0
ResearchGroup 10 191

TOTAL: 1439
TOTAL SO FAR: 19196

PROPERTY INSTANCE# TOTAL-SO-FAR
-------------------------------
name 1124 14960
takesCourse 1438 19127
teacherOf 110 1446
undergraduateDegreeFrom 162 2184
mastersDegreeFrom 34 476
doctoralDegreeFrom 36 474
advisor 201 2786
memberOf 540 6982
publicationAuthor 732 10076
headOf 1 14
teachingAssistantOf 32 393
researchInterest 30 419
emailAddress 597 7871
telephone 597 7871
subOrganizationOf 11 205
worksFor 34 472

TOTAL: 5679
TOTAL SO FAR: 75756

-----------------------------------------------------------------------
/Users/ziyad/Documents/Tools/benchs/./bench/datasets/University0_14.owl
-----------------------------------------------------------------------
External Seed=0 Interal Seed=0

CLASS INSTANCE# TOTAL-SO-FAR
----------------------------
University 211 3360
Department 1 15
Faculty 0 0
Professor 0 0
FullProfessor 8 128
AssociateProfessor 13 186
AssistantProfessor 8 134
Lecturer 6 88
Student 0 0
UndergraduateStudent 373 5949
GraduateStudent 118 1912
TeachingAssistant 26 419
ResearchAssistant 31 535
Course 51 796
GraduateCourse 57 811
Publication 364 5939
Chair 0 0
Research 0 0
ResearchGroup 19 210

TOTAL: 1286
TOTAL SO FAR: 20482

PROPERTY INSTANCE# TOTAL-SO-FAR
-------------------------------
name 999 15959
takesCourse 1282 20409
teacherOf 98 1544
undergraduateDegreeFrom 142 2326
mastersDegreeFrom 33 509
doctoralDegreeFrom 35 509
advisor 209 2995
memberOf 466 7448
publicationAuthor 659 10735
headOf 1 15
teachingAssistantOf 26 419
researchInterest 29 448
emailAddress 526 8397
telephone 526 8397
subOrganizationOf 20 225
worksFor 34 506

TOTAL: 5085
TOTAL SO FAR: 80841

